{
    "type": "minecraft:crafting_shaped",
    "pattern": [
        "i i",
        "i i"
    ],
    "key": {
        "i": {
            "item": "glass_armor:glass_ingot"
        }
    },
    "result": {
        "item": "glass_armor:boots",
        "count": 1
    },
    "group": "glass_armor"
}
