{
    "type": "minecraft:blasting",
    "ingredient": {
        "item": "minecraft:glass"
    },
    "result": "glass_armor:glass_ingot",
    "experience": 0.1,
    "cookingtime": 300,
    "group": "glass_armor"
}
